<svg xmlns="http://www.w3.org/2000/svg" viewBox="0 0 1080 1080" width="1080" height="1080">
	<g transform="matrix(0.7851899862289429,0,0,0.7851899862289429,115.99740600585938,171.99740600585938)">
		<g transform="matrix(1,0,0,1,439.9100036621094,318.6449890136719)" opacity="1" style="display: block;">
			<g opacity="1" transform="matrix(1,0,0,1,100.2770004272461,166.96200561523438)">
				<path fill="rgb(93,156,235)" fill-opacity="1" d=" M0,-33.34199905395508 C29.006999969482422,-33.34199905395508 53.680999755859375,-14.836999893188477 62.849998474121094,11.003000259399414 C45.67900085449219,25.006999969482422 23.839000701904297,33.34199905395508 0,33.34199905395508 C-23.84000015258789,33.34199905395508 -45.67900085449219,25.006999969482422 -62.849998474121094,11.003000259399414 C-53.680999755859375,-14.836999893188477 -29.007999420166016,-33.34199905395508 0,-33.34199905395508z"></path>
			</g>
			<g opacity="1" transform="matrix(1,0,0,1,100.2770004272461,89.10800170898438)">
				<path fill="rgb(100,108,120)" fill-opacity="1" d=" M-33.34199905395508,11.168999671936035 C-33.34199905395508,29.506999969482422 -18.33799934387207,44.512001037597656 0,44.512001037597656 C-29.007999420166016,44.512001037597656 -53.680999755859375,63.016998291015625 -62.849998474121094,88.85800170898438 C-85.52300262451172,70.68599700927734 -100.0270004272461,42.51100158691406 -100.0270004272461,11.168999671936035 C-100.0270004272461,-44.17900085449219 -55.180999755859375,-88.85800170898438 0,-88.85800170898438 C55.180999755859375,-88.85800170898438 100.0270004272461,-44.17900085449219 100.0270004272461,11.168999671936035 C100.0270004272461,42.51100158691406 85.52300262451172,70.68599700927734 62.849998474121094,88.85800170898438 C53.680999755859375,63.016998291015625 29.007999420166016,44.512001037597656 0,44.512001037597656 C18.339000701904297,44.512001037597656 33.34299850463867,29.506999969482422 33.34299850463867,11.168999671936035 C33.34299850463867,-7.335999965667725 18.339000701904297,-22.17300033569336 0,-22.17300033569336 C-18.33799934387207,-22.17300033569336 -33.34199905395508,-7.335999965667725 -33.34199905395508,11.168999671936035z"></path>
			</g>
			<g opacity="1" transform="matrix(1,0,0,1,100.2770004272461,108.61199951171875)">
				<path fill="rgb(234,197,186)" fill-opacity="1" d=" M41.678001403808594,0 C41.678001403808594,22.92300033569336 22.922000885009766,41.678001403808594 0,41.678001403808594 C-22.92300033569336,41.678001403808594 -41.678001403808594,22.92300033569336 -41.678001403808594,0 C-41.678001403808594,-23.138999938964844 -22.92300033569336,-41.678001403808594 0,-41.678001403808594 C22.922000885009766,-41.678001403808594 41.678001403808594,-23.138999938964844 41.678001403808594,0z"></path>
			</g>
		</g>
		<g transform="matrix(1,0,0,1,189.79299926757812,568.8450317382812)" opacity="1" style="display: block;">
			<g opacity="1" transform="matrix(1,0,0,1,350.3940124511719,16.922000885009766)">
				<path fill="rgb(204,209,217)" fill-opacity="1" d=" M333.4729919433594,16.67099952697754 C333.4729919433594,16.67099952697754 -333.4729919433594,16.67099952697754 -333.4729919433594,16.67099952697754 C-342.6929931640625,16.67099952697754 -350.1440124511719,9.220000267028809 -350.1440124511719,0.0010000000474974513 C-350.1440124511719,-9.218999862670898 -342.6929931640625,-16.67099952697754 -333.4729919433594,-16.67099952697754 C-333.4729919433594,-16.67099952697754 333.4729919433594,-16.67099952697754 333.4729919433594,-16.67099952697754 C342.6919860839844,-16.67099952697754 350.1440124511719,-9.218999862670898 350.1440124511719,0.0010000000474974513 C350.1440124511719,9.220000267028809 342.6919860839844,16.67099952697754 333.4729919433594,16.67099952697754z"></path>
			</g>
			<g opacity="1" transform="matrix(1,0,0,1,350.3940124511719,66.93499755859375)">
				<path fill="rgb(204,209,217)" fill-opacity="1" d=" M333.4729919433594,16.67099952697754 C333.4729919433594,16.67099952697754 -333.4729919433594,16.67099952697754 -333.4729919433594,16.67099952697754 C-342.6929931640625,16.67099952697754 -350.1440124511719,9.218999862670898 -350.1440124511719,-0.0010000000474974513 C-350.1440124511719,-9.220000267028809 -342.6929931640625,-16.67099952697754 -333.4729919433594,-16.67099952697754 C-333.4729919433594,-16.67099952697754 333.4729919433594,-16.67099952697754 333.4729919433594,-16.67099952697754 C342.6919860839844,-16.67099952697754 350.1440124511719,-9.220000267028809 350.1440124511719,-0.0010000000474974513 C350.1440124511719,9.218999862670898 342.6919860839844,16.67099952697754 333.4729919433594,16.67099952697754z"></path>
			</g>
			<g opacity="1" transform="matrix(1,0,0,1,350.3940124511719,116.9489974975586)">
				<path fill="rgb(204,209,217)" fill-opacity="1" d=" M333.4729919433594,16.67099952697754 C333.4729919433594,16.67099952697754 -333.4729919433594,16.67099952697754 -333.4729919433594,16.67099952697754 C-342.6929931640625,16.67099952697754 -350.1440124511719,9.218999862670898 -350.1440124511719,-0.0010000000474974513 C-350.1440124511719,-9.220000267028809 -342.6929931640625,-16.67099952697754 -333.4729919433594,-16.67099952697754 C-333.4729919433594,-16.67099952697754 333.4729919433594,-16.67099952697754 333.4729919433594,-16.67099952697754 C342.6919860839844,-16.67099952697754 350.1440124511719,-9.220000267028809 350.1440124511719,-0.0010000000474974513 C350.1440124511719,9.218999862670898 342.6919860839844,16.67099952697754 333.4729919433594,16.67099952697754z"></path>
			</g>
			<g opacity="1" transform="matrix(1,0,0,1,350.3940124511719,166.96200561523438)">
				<path fill="rgb(204,209,217)" fill-opacity="1" d=" M166.71200561523438,16.67099952697754 C166.71200561523438,16.67099952697754 -166.71099853515625,16.67099952697754 -166.71099853515625,16.67099952697754 C-175.92999267578125,16.67099952697754 -183.3820037841797,9.218999862670898 -183.3820037841797,0 C-183.3820037841797,-9.218999862670898 -175.92999267578125,-16.67099952697754 -166.71099853515625,-16.67099952697754 C-166.71099853515625,-16.67099952697754 166.71200561523438,-16.67099952697754 166.71200561523438,-16.67099952697754 C175.93099975585938,-16.67099952697754 183.3820037841797,-9.218999862670898 183.3820037841797,0 C183.3820037841797,9.218999862670898 175.93099975585938,16.67099952697754 166.71200561523438,16.67099952697754z"></path>
			</g>
		</g>
	</g>
</svg>