<svg xmlns="http://www.w3.org/2000/svg" viewBox="0 0 1080 1080" width="1080" height="1080">
	<g>
		<g transform="matrix(1,0,0,1,85.75,182.15699768066406)">
			<g transform="matrix(1,0,0,1,454.75,231.4969940185547)">
				<path fill="rgb(93,156,235)" fill-opacity="1" d=" M438.2690124511719,231.2469940185547 C438.2690124511719,231.2469940185547 -438.26800537109375,231.2469940185547 -438.26800537109375,231.2469940185547 C-447.2439880371094,231.2469940185547 -454.5,223.99099731445312 -454.5,215.01600646972656 C-454.5,215.01600646972656 -454.5,-215.01499938964844 -454.5,-215.01499938964844 C-454.5,-223.99200439453125 -447.2439880371094,-231.2469940185547 -438.26800537109375,-231.2469940185547 C-438.26800537109375,-231.2469940185547 438.2690124511719,-231.2469940185547 438.2690124511719,-231.2469940185547 C447.2449951171875,-231.2469940185547 454.5,-223.99200439453125 454.5,-215.01499938964844 C454.5,-215.01499938964844 454.5,215.01600646972656 454.5,215.01600646972656 C454.5,223.99099731445312 447.2449951171875,231.2469940185547 438.2690124511719,231.2469940185547z"></path>
			</g>
			<g transform="matrix(1,0,0,1,260.12200927734375,130.13699340820312)">
				<path fill="rgb(255,206,83)" fill-opacity="1" d=" M0,-56.8120002746582 C31.44099998474121,-56.8120002746582 56.8120002746582,-31.44099998474121 56.8120002746582,0 C56.8120002746582,31.261999130249023 31.44099998474121,56.8120002746582 0,56.8120002746582 C-31.44099998474121,56.8120002746582 -56.8120002746582,31.261999130249023 -56.8120002746582,0 C-56.8120002746582,-31.44099998474121 -31.44099998474121,-56.8120002746582 0,-56.8120002746582z"></path>
			</g>
			<g transform="matrix(1,0,0,1,81.53099822998047,226.88699340820312)">
				<path fill="rgb(73,136,220)" fill-opacity="1" d=" M-16.224000930786133,33.250999450683594 C-20.378999710083008,33.250999450683594 -24.53499984741211,31.65999984741211 -27.700000762939453,28.4950008392334 C-34.04600143432617,22.148000717163086 -34.04600143432617,11.890000343322754 -27.700000762939453,5.543000221252441 C-27.700000762939453,5.543000221252441 4.748000144958496,-26.90399932861328 4.748000144958496,-26.90399932861328 C11.093999862670898,-33.250999450683594 21.35300064086914,-33.250999450683594 27.698999404907227,-26.90399932861328 C34.04600143432617,-20.558000564575195 34.04600143432617,-10.298999786376953 27.698999404907227,-3.953000068664551 C27.698999404907227,-3.953000068664551 -4.748000144958496,28.4950008392334 -4.748000144958496,28.4950008392334 C-7.913000106811523,31.65999984741211 -12.069000244140625,33.250999450683594 -16.224000930786133,33.250999450683594z"></path>
			</g>
			<g transform="matrix(1,0,0,1,81.53099822998047,259.3420104980469)">
				<path fill="rgb(73,136,220)" fill-opacity="1" d=" M16.224000930786133,33.25899887084961 C12.069000244140625,33.25899887084961 7.913000106811523,31.66900062561035 4.748000144958496,28.503999710083008 C4.748000144958496,28.503999710083008 -27.698999404907227,-3.9600000381469727 -27.698999404907227,-3.9600000381469727 C-34.04600143432617,-10.305999755859375 -34.04600143432617,-20.565000534057617 -27.698999404907227,-26.91200065612793 C-21.35300064086914,-33.25899887084961 -11.093999862670898,-33.25899887084961 -4.748000144958496,-26.91200065612793 C-4.748000144958496,-26.91200065612793 27.700000762939453,5.552000045776367 27.700000762939453,5.552000045776367 C34.04600143432617,11.89900016784668 34.04600143432617,22.156999588012695 27.700000762939453,28.503999710083008 C24.53499984741211,31.66900062561035 20.378999710083008,33.25899887084961 16.224000930786133,33.25899887084961z"></path>
			</g>
			<g transform="matrix(1,0,0,1,828.0989990234375,226.88699340820312)">
				<path fill="rgb(73,136,220)" fill-opacity="1" d=" M16.224000930786133,33.250999450683594 C12.069000244140625,33.250999450683594 7.9120001792907715,31.65999984741211 4.747000217437744,28.4950008392334 C4.747000217437744,28.4950008392334 -27.700000762939453,-3.953000068664551 -27.700000762939453,-3.953000068664551 C-34.047000885009766,-10.298999786376953 -34.047000885009766,-20.558000564575195 -27.700000762939453,-26.90399932861328 C-21.35300064086914,-33.250999450683594 -11.095000267028809,-33.250999450683594 -4.749000072479248,-26.90399932861328 C-4.749000072479248,-26.90399932861328 27.701000213623047,5.543000221252441 27.701000213623047,5.543000221252441 C34.047000885009766,11.890000343322754 34.047000885009766,22.148000717163086 27.701000213623047,28.4950008392334 C24.535999298095703,31.65999984741211 20.378999710083008,33.250999450683594 16.224000930786133,33.250999450683594z"></path>
			</g>
			<g transform="matrix(1,0,0,1,828.0999755859375,259.3420104980469)">
				<path fill="rgb(73,136,220)" fill-opacity="1" d=" M-16.224000930786133,33.25899887084961 C-20.378999710083008,33.25899887084961 -24.535999298095703,31.66900062561035 -27.701000213623047,28.503999710083008 C-34.047000885009766,22.156999588012695 -34.047000885009766,11.89900016784668 -27.701000213623047,5.552000045776367 C-27.701000213623047,5.552000045776367 4.747000217437744,-26.91200065612793 4.747000217437744,-26.91200065612793 C11.093000411987305,-33.25899887084961 21.351999282836914,-33.25899887084961 27.698999404907227,-26.91200065612793 C34.04600143432617,-20.565000534057617 34.04600143432617,-10.305999755859375 27.698999404907227,-3.9600000381469727 C27.698999404907227,-3.9600000381469727 -4.749000072479248,28.503999710083008 -4.749000072479248,28.503999710083008 C-7.914000034332275,31.66900062561035 -12.069000244140625,33.25899887084961 -16.224000930786133,33.25899887084961z"></path>
			</g>
			<g transform="matrix(1,0,0,1,568.2360229492188,308.7030029296875)">
				<path fill="rgb(100,108,120)" fill-opacity="1" d=" M-206.69700622558594,154.04100036621094 C-206.69700622558594,154.04100036621094 206.71200561523438,154.0240020751953 206.71200561523438,154.0240020751953 C206.71200561523438,154.0240020751953 206.72799682617188,154.04100036621094 206.72799682617188,154.04100036621094 C206.72799682617188,154.04100036621094 247.843994140625,154.04100036621094 247.843994140625,154.04100036621094 C247.843994140625,154.04100036621094 12.805999755859375,-148.01800537109375 12.805999755859375,-148.01800537109375 C12.399999618530273,-148.55299377441406 11.784000396728516,-148.8300018310547 11.329000473022461,-149.28500366210938 C10.843000411987305,-149.77200317382812 10.550999641418457,-150.4040069580078 9.982000350952148,-150.85800170898438 C9.640999794006348,-151.13400268554688 9.20300006866455,-151.19900512695312 8.862000465393066,-151.42599487304688 C7.936999797821045,-152.02699279785156 7.011000156402588,-152.44900512695312 5.988999843597412,-152.85499572753906 C4.999000072479248,-153.24400329589844 4.073999881744385,-153.63400268554688 3.0350000858306885,-153.82899475097656 C2.0280001163482666,-154.0229949951172 1.0870000123977661,-154.0399932861328 0.06400000303983688,-154.0399932861328 C-1.0069999694824219,-154.0399932861328 -2.0299999713897705,-154.0399932861328 -3.0840001106262207,-153.82899475097656 C-4.073999881744385,-153.63400268554688 -4.951000213623047,-153.27699279785156 -5.89300012588501,-152.88699340820312 C-6.932000160217285,-152.4810028076172 -7.921999931335449,-152.04299926757812 -8.878999710083008,-151.41000366210938 C-9.220000267028809,-151.16700744628906 -9.642000198364258,-151.1179962158203 -9.982999801635742,-150.85800170898438 C-10.550999641418457,-150.4199981689453 -10.843000411987305,-149.78799438476562 -11.329999923706055,-149.28500366210938 C-11.784000396728516,-148.8300018310547 -12.385000228881836,-148.55299377441406 -12.807999610900879,-148.01800537109375 C-12.807999610900879,-148.01800537109375 -247.843994140625,154.04100036621094 -247.843994140625,154.04100036621094 C-247.843994140625,154.04100036621094 -206.69700622558594,154.04100036621094 -206.69700622558594,154.04100036621094z"></path>
			</g>
			<g transform="matrix(1,0,0,1,314.81500244140625,349.29998779296875)">
				<path fill="rgb(83,92,102)" fill-opacity="1" d=" M69.95099639892578,-108.6729965209961 C69.447998046875,-109.19300079345703 69.12300109863281,-109.85700225830078 68.52300262451172,-110.3280029296875 C68.197998046875,-110.58799743652344 67.80799865722656,-110.63600158691406 67.48400115966797,-110.83100128173828 C66.54299926757812,-111.46399688720703 65.58499908447266,-111.87000274658203 64.5459976196289,-112.2760009765625 C63.5880012512207,-112.64900207519531 62.68000030517578,-113.05500030517578 61.68899917602539,-113.25 C60.66699981689453,-113.44400024414062 59.65999984741211,-113.44400024414062 58.62099838256836,-113.44400024414062 C57.5989990234375,-113.44400024414062 56.57600021362305,-113.44400024414062 55.56999969482422,-113.25 C54.58000183105469,-113.05500030517578 53.67100143432617,-112.68099975585938 52.7130012512207,-112.29199981689453 C51.689998626708984,-111.88600158691406 50.71699905395508,-111.46399688720703 49.75899887084961,-110.83100128173828 C49.433998107910156,-110.60399627685547 49.04499816894531,-110.55500030517578 48.736000061035156,-110.3280029296875 C48.13600158691406,-109.87300109863281 47.82699966430664,-109.2239990234375 47.30799865722656,-108.68800354003906 C46.82099914550781,-108.20099639892578 46.20399856567383,-107.90899658203125 45.76599884033203,-107.34100341796875 C45.76599884033203,-107.34100341796875 -124.13300323486328,113.44400024414062 -124.13300323486328,113.44400024414062 C-124.13300323486328,113.44400024414062 -83.18000030517578,113.44400024414062 -83.18000030517578,113.44400024414062 C-83.18000030517578,113.44400024414062 -83.16400146484375,113.4280014038086 -83.16400146484375,113.4280014038086 C-83.16400146484375,113.4280014038086 5.5920000076293945,113.4280014038086 5.5920000076293945,113.4280014038086 C5.5920000076293945,113.4280014038086 124.13300323486328,-38.92399978637695 124.13300323486328,-38.92399978637695 C124.13300323486328,-38.92399978637695 71.49299621582031,-107.35700225830078 71.49299621582031,-107.35700225830078 C71.07099914550781,-107.90899658203125 70.4540023803711,-108.18599700927734 69.95099639892578,-108.6729965209961z"></path>
			</g>
		</g>
	</g>
</svg>