<svg xmlns="http://www.w3.org/2000/svg" viewBox="0 0 1080 1080" width="1080" height="1080">
	<g transform="matrix(1,0,0,1,0,0)">
		<g transform="matrix(1,0,0,1,541,573.1270141601562)">
			<path fill="rgb(230,233,236)" fill-opacity="1" d=" M-511.9630126953125,396.3590087890625 C-511.9630126953125,405.4419860839844 -504.531005859375,412.87298583984375 -495.447998046875,412.87298583984375 C-495.447998046875,412.87298583984375 495.447998046875,412.87298583984375 495.447998046875,412.87298583984375 C504.531005859375,412.87298583984375 511.9630126953125,405.4419860839844 511.9630126953125,396.3590087890625 C511.9630126953125,396.3590087890625 511.9630126953125,-412.87298583984375 511.9630126953125,-412.87298583984375 C511.9630126953125,-412.87298583984375 -511.9630126953125,-412.87298583984375 -511.9630126953125,-412.87298583984375 C-511.9630126953125,-412.87298583984375 -511.9630126953125,396.3590087890625 -511.9630126953125,396.3590087890625z"></path>
		</g>
		<g transform="matrix(1,0,0,1,541,127.2239990234375)">
			<path fill="rgb(204,209,217)" fill-opacity="1" d=" M511.9630126953125,0 C511.9630126953125,0 511.9630126953125,33.029998779296875 511.9630126953125,33.029998779296875 C511.9630126953125,33.029998779296875 -511.9630126953125,33.029998779296875 -511.9630126953125,33.029998779296875 C-511.9630126953125,33.029998779296875 -511.9630126953125,0 -511.9630126953125,0 C-511.9630126953125,-18.315000534057617 -497.2650146484375,-33.029998779296875 -478.9330139160156,-33.029998779296875 C-478.9330139160156,-33.029998779296875 478.9330139160156,-33.029998779296875 478.9330139160156,-33.029998779296875 C497.2650146484375,-33.029998779296875 511.9630126953125,-18.315000534057617 511.9630126953125,0z"></path>
		</g>
		<g transform="matrix(1,0,0,1,78.63999938964844,127.19000244140625)">
			<path fill="rgb(230,233,236)" fill-opacity="1" d=" M0.041999999433755875,-16.514999389648438 C0.041999999433755875,-16.514999389648438 -0.12399999797344208,-16.514999389648438 -0.12399999797344208,-16.514999389648438 C-9.239999771118164,-16.514999389648438 -16.55699920654297,-9.133000373840332 -16.55699920654297,0 C-16.55699920654297,9.116000175476074 -9.074999809265137,16.514999389648438 0.041999999433755875,16.514999389648438 C9.173999786376953,16.514999389648438 16.55699920654297,9.116000175476074 16.55699920654297,0 C16.55699920654297,-9.133000373840332 9.173999786376953,-16.514999389648438 0.041999999433755875,-16.514999389648438z"></path>
		</g>
		<g transform="matrix(1,0,0,1,128.16799926757812,127.19000244140625)">
			<path fill="rgb(230,233,236)" fill-opacity="1" d=" M0.04100000113248825,-16.514999389648438 C0.04100000113248825,-16.514999389648438 -0.12399999797344208,-16.514999389648438 -0.12399999797344208,-16.514999389648438 C-9.256999969482422,-16.514999389648438 -16.555999755859375,-9.133000373840332 -16.555999755859375,0 C-16.555999755859375,9.116000175476074 -9.090999603271484,16.514999389648438 0.04100000113248825,16.514999389648438 C9.173999786376953,16.514999389648438 16.555999755859375,9.116000175476074 16.555999755859375,0 C16.555999755859375,-9.133000373840332 9.173999786376953,-16.514999389648438 0.04100000113248825,-16.514999389648438z"></path>
		</g>
		<g transform="matrix(1,0,0,1,177.76199340820312,127.19000244140625)">
			<path fill="rgb(230,233,236)" fill-opacity="1" d=" M0.041999999433755875,-16.514999389648438 C0.041999999433755875,-16.514999389648438 -0.12399999797344208,-16.514999389648438 -0.12399999797344208,-16.514999389648438 C-9.239999771118164,-16.514999389648438 -16.55699920654297,-9.133000373840332 -16.55699920654297,0 C-16.55699920654297,9.116000175476074 -9.074000358581543,16.514999389648438 0.041999999433755875,16.514999389648438 C9.175000190734863,16.514999389648438 16.55699920654297,9.116000175476074 16.55699920654297,0 C16.55699920654297,-9.133000373840332 9.175000190734863,-16.514999389648438 0.041999999433755875,-16.514999389648438z"></path>
		</g>
	</g>
</svg>