<svg xmlns="http://www.w3.org/2000/svg" viewBox="0 0 1080 1080" width="1080" height="1080">
	<g transform="matrix(0.7851899862289429,0,0,0.7851899862289429,115.99740600585938,171.99740600585938)">
		<g transform="matrix(1,0,0,1,111.11800384521484,239.02801513671875)" opacity="1" style="display: block;">
			<g opacity="1" transform="matrix(1,0,0,1,18.55500030517578,50.26300048828125)">
				<path fill="rgb(83,92,102)" fill-opacity="1" d=" M0,-33.34199905395508 C9.218999862670898,-33.34199905395508 16.67099952697754,-25.889999389648438 16.67099952697754,-16.67099952697754 C16.67099952697754,-16.67099952697754 16.67099952697754,16.672000885009766 16.67099952697754,16.672000885009766 C16.67099952697754,25.891000747680664 9.218999862670898,33.34199905395508 0,33.34199905395508 C-9.218999862670898,33.34199905395508 -16.67099952697754,25.891000747680664 -16.67099952697754,16.672000885009766 C-16.67099952697754,16.672000885009766 -16.67099952697754,-16.67099952697754 -16.67099952697754,-16.67099952697754 C-16.67099952697754,-25.889999389648438 -9.218999862670898,-33.34199905395508 0,-33.34199905395508z"></path>
			</g>
			<g opacity="1" transform="matrix(1,0,0,1,26.89900016784668,26.073999404907227)">
				<path fill="rgb(83,92,102)" fill-opacity="1" d=" M8.343999862670898,-25.823999404907227 C12.612000465393066,-25.823999404907227 16.8799991607666,-24.190000534057617 20.1299991607666,-20.93899917602539 C26.64900016784668,-14.420999526977539 26.64900016784668,-3.868000030517578 20.1299991607666,2.634000062942505 C20.1299991607666,2.634000062942505 3.443000078201294,19.305999755859375 3.443000078201294,19.305999755859375 C-3.0759999752044678,25.823999404907227 -13.612000465393066,25.823999404907227 -20.131000518798828,19.305999755859375 C-26.64900016784668,12.786999702453613 -26.64900016784668,2.234999895095825 -20.131000518798828,-4.267000198364258 C-20.131000518798828,-4.267000198364258 -3.443000078201294,-20.93899917602539 -3.443000078201294,-20.93899917602539 C-0.19200000166893005,-24.190000534057617 4.076000213623047,-25.823999404907227 8.343999862670898,-25.823999404907227z"></path>
			</g>
			<g opacity="1" transform="matrix(1,0,0,1,43.5620002746582,91.94100189208984)">
				<path fill="rgb(100,108,120)" fill-opacity="1" d=" M-25.006999969482422,41.678001403808594 C-25.006999969482422,41.678001403808594 25.006000518798828,41.678001403808594 25.006000518798828,41.678001403808594 C34.224998474121094,41.678001403808594 41.678001403808594,34.22600173950195 41.678001403808594,25.006999969482422 C41.678001403808594,25.006999969482422 41.678001403808594,-25.006999969482422 41.678001403808594,-25.006999969482422 C41.678001403808594,-34.22600173950195 34.224998474121094,-41.678001403808594 25.006000518798828,-41.678001403808594 C25.006000518798828,-41.678001403808594 -25.006999969482422,-41.678001403808594 -25.006999969482422,-41.678001403808594 C-34.22600173950195,-41.678001403808594 -41.678001403808594,-34.22600173950195 -41.678001403808594,-25.006999969482422 C-41.678001403808594,-25.006999969482422 -41.678001403808594,25.006999969482422 -41.678001403808594,25.006999969482422 C-41.678001403808594,34.22600173950195 -34.22600173950195,41.678001403808594 -25.006999969482422,41.678001403808594z"></path>
			</g>
			<g opacity="1" transform="matrix(1,0,0,1,118.53199768066406,50.26300048828125)">
				<path fill="rgb(83,92,102)" fill-opacity="1" d=" M0,-33.34199905395508 C9.218999862670898,-33.34199905395508 16.67099952697754,-25.889999389648438 16.67099952697754,-16.67099952697754 C16.67099952697754,-16.67099952697754 16.67099952697754,16.672000885009766 16.67099952697754,16.672000885009766 C16.67099952697754,25.891000747680664 9.218999862670898,33.34199905395508 0,33.34199905395508 C-9.218999862670898,33.34199905395508 -16.67099952697754,25.891000747680664 -16.67099952697754,16.672000885009766 C-16.67099952697754,16.672000885009766 -16.67099952697754,-16.67099952697754 -16.67099952697754,-16.67099952697754 C-16.67099952697754,-25.889999389648438 -9.218999862670898,-33.34199905395508 0,-33.34199905395508z"></path>
			</g>
			<g opacity="1" transform="matrix(1,0,0,1,126.8759994506836,26.073999404907227)">
				<path fill="rgb(83,92,102)" fill-opacity="1" d=" M8.343999862670898,-25.823999404907227 C12.612000465393066,-25.823999404907227 16.8799991607666,-24.190000534057617 20.131000518798828,-20.93899917602539 C26.64900016784668,-14.420999526977539 26.64900016784668,-3.868000030517578 20.131000518798828,2.634000062942505 C20.131000518798828,2.634000062942505 3.443000078201294,19.305999755859375 3.443000078201294,19.305999755859375 C-3.075000047683716,25.823999404907227 -13.612000465393066,25.823999404907227 -20.1299991607666,19.305999755859375 C-26.64900016784668,12.786999702453613 -26.64900016784668,2.234999895095825 -20.1299991607666,-4.267000198364258 C-20.1299991607666,-4.267000198364258 -3.443000078201294,-20.93899917602539 -3.443000078201294,-20.93899917602539 C-0.19200000166893005,-24.190000534057617 4.076000213623047,-25.823999404907227 8.343999862670898,-25.823999404907227z"></path>
			</g>
			<g opacity="1" transform="matrix(1,0,0,1,143.53900146484375,91.94100189208984)">
				<path fill="rgb(100,108,120)" fill-opacity="1" d=" M-25.006999969482422,41.678001403808594 C-25.006999969482422,41.678001403808594 25.006000518798828,41.678001403808594 25.006000518798828,41.678001403808594 C34.224998474121094,41.678001403808594 41.678001403808594,34.22600173950195 41.678001403808594,25.006999969482422 C41.678001403808594,25.006999969482422 41.678001403808594,-25.006999969482422 41.678001403808594,-25.006999969482422 C41.678001403808594,-34.22600173950195 34.224998474121094,-41.678001403808594 25.006000518798828,-41.678001403808594 C25.006000518798828,-41.678001403808594 -25.006999969482422,-41.678001403808594 -25.006999969482422,-41.678001403808594 C-34.22600173950195,-41.678001403808594 -41.678001403808594,-34.22600173950195 -41.678001403808594,-25.006999969482422 C-41.678001403808594,-25.006999969482422 -41.678001403808594,25.006999969482422 -41.678001403808594,25.006999969482422 C-41.678001403808594,34.22600173950195 -34.22600173950195,41.678001403808594 -25.006999969482422,41.678001403808594z"></path>
			</g>
		</g>
	</g>
</svg>