<svg xmlns="http://www.w3.org/2000/svg" viewBox="0 0 34 42" width="34" height="42">
	<g>
		<g>
			<g opacity="1" transform="matrix(1,0,0,1,17.51799964904785,20.485000610351562)">
				<path fill="rgb(210,213,255)" fill-opacity="1" d=" M12.440999984741211,18.511999130249023 C12.440999984741211,18.511999130249023 -13.645999908447266,2.680999994277954 -13.645999908447266,2.680999994277954 C-15.305000305175781,1.6260000467300415 -16.361000061035156,-0.18299999833106995 -16.361000061035156,-2.2939999103546143 C-16.361000061035156,-2.2939999103546143 -16.361000061035156,-16.917999267578125 -16.361000061035156,-16.917999267578125 C-16.361000061035156,-19.02899932861328 -14.100000381469727,-20.235000610351562 -12.440999984741211,-19.179000854492188 C-12.440999984741211,-19.179000854492188 13.645999908447266,-3.3489999771118164 13.645999908447266,-3.3489999771118164 C15.305000305175781,-2.2939999103546143 16.361000061035156,-0.48500001430511475 16.361000061035156,1.6260000467300415 C16.361000061035156,1.6260000467300415 16.361000061035156,16.25 16.361000061035156,16.25 C16.361000061035156,18.361000061035156 14.100000381469727,19.56800079345703 12.440999984741211,18.511999130249023z"></path>
			</g>
			<g opacity="1" transform="matrix(1,0,0,1,26.33799934387207,39.073001861572266)">
				<path fill="rgb(210,213,255)" fill-opacity="1" d=" M2.26200008392334,-0.8299999833106995 C2.26200008392334,-0.8299999833106995 2.26200008392334,3.5439999103546143 2.26200008392334,3.5439999103546143 C2.26200008392334,3.5439999103546143 -2.26200008392334,-3.5439999103546143 -2.26200008392334,-3.5439999103546143 C-2.26200008392334,-3.5439999103546143 2.26200008392334,-0.8299999833106995 2.26200008392334,-0.8299999833106995z"></path>
			</g>
			<g opacity="1" transform="matrix(1,0,0,1,27.84600067138672,41.7859992980957)">
				<path fill="rgb(210,213,255)" fill-opacity="1" d=" M0.7540000081062317,0.8289999961853027 C0.7540000081062317,0.8289999961853027 -0.1509999930858612,1.1299999952316284 -0.1509999930858612,1.1299999952316284 C-0.1509999930858612,1.1299999952316284 -0.7540000081062317,-1.1299999952316284 -0.7540000081062317,-1.1299999952316284 C-0.7540000081062317,-1.1299999952316284 -0.1509999930858612,-1.1299999952316284 -0.1509999930858612,-1.1299999952316284 C-0.1509999930858612,-1.1299999952316284 0.7540000081062317,0.8289999961853027 0.7540000081062317,0.8289999961853027z"></path>
			</g>
			<g opacity="1" transform="matrix(1,0,0,1,16.611000061035156,20.635000228881836)">
				<path fill="rgb(255,255,255)" fill-opacity="1" d=" M12.440999984741211,18.663000106811523 C12.440999984741211,18.663000106811523 -13.645999908447266,2.8320000171661377 -13.645999908447266,2.8320000171661377 C-15.305000305175781,1.7769999504089355 -16.361000061035156,-0.03200000151991844 -16.361000061035156,-2.1429998874664307 C-16.361000061035156,-2.1429998874664307 -16.361000061035156,-16.767000198364258 -16.361000061035156,-16.767000198364258 C-16.361000061035156,-18.878000259399414 -14.098999977111816,-20.083999633789062 -12.4399995803833,-19.027999877929688 C-12.4399995803833,-19.027999877929688 13.647000312805176,-3.197999954223633 13.647000312805176,-3.197999954223633 C15.305999755859375,-2.1429998874664307 16.361000061035156,-0.33399999141693115 16.361000061035156,1.7769999504089355 C16.361000061035156,1.7769999504089355 16.361000061035156,16.400999069213867 16.361000061035156,16.400999069213867 C16.361000061035156,18.511999130249023 14.25,19.718000411987305 12.440999984741211,18.663000106811523z"></path>
			</g>
			<g opacity="1" transform="matrix(1,0,0,1,25.507999420166016,39.374000549316406)">
				<path fill="rgb(255,255,255)" fill-opacity="1" d=" M2.187000036239624,-0.8289999961853027 C2.187000036239624,-0.8289999961853027 2.187000036239624,3.5429999828338623 2.187000036239624,3.5429999828338623 C2.187000036239624,3.5429999828338623 -2.187000036239624,-3.5429999828338623 -2.187000036239624,-3.5429999828338623 C-2.187000036239624,-3.5429999828338623 2.187000036239624,-0.8289999961853027 2.187000036239624,-0.8289999961853027z"></path>
			</g>
			<g opacity="1" transform="matrix(1,0,0,1,17.06399917602539,13.517999649047852)">
				<path fill="rgb(210,213,255)" fill-opacity="1" d=" M-11.789999961853027,-7.14900016784668 C-11.755000114440918,-7.205999851226807 -11.680999755859375,-7.223999977111816 -11.62399959564209,-7.190000057220459 C-11.62399959564209,-7.190000057220459 11.75,6.98199987411499 11.75,6.98199987411499 C11.807000160217285,7.017000198364258 11.824999809265137,7.091000080108643 11.789999961853027,7.1479997634887695 C11.755000114440918,7.204999923706055 11.680999755859375,7.223999977111816 11.62399959564209,7.189000129699707 C11.62399959564209,7.189000129699707 -11.74899959564209,-6.982999801635742 -11.74899959564209,-6.982999801635742 C-11.807000160217285,-7.01800012588501 -11.824999809265137,-7.0920000076293945 -11.789999961853027,-7.14900016784668z"></path>
			</g>
			<g opacity="1" transform="matrix(1,0,0,1,17.06399917602539,16.985000610351562)">
				<path fill="rgb(210,213,255)" fill-opacity="1" d=" M-11.789999961853027,-7.14900016784668 C-11.755000114440918,-7.205999851226807 -11.680999755859375,-7.223999977111816 -11.62399959564209,-7.189000129699707 C-11.62399959564209,-7.189000129699707 11.75,6.982999801635742 11.75,6.982999801635742 C11.807000160217285,7.01800012588501 11.824999809265137,7.0920000076293945 11.789999961853027,7.14900016784668 C11.755000114440918,7.205999851226807 11.680999755859375,7.223999977111816 11.62399959564209,7.189000129699707 C11.62399959564209,7.189000129699707 -11.74899959564209,-6.982999801635742 -11.74899959564209,-6.982999801635742 C-11.807000160217285,-7.01800012588501 -11.824999809265137,-7.0920000076293945 -11.789999961853027,-7.14900016784668z"></path>
			</g>
			<g opacity="1" transform="matrix(1,0,0,1,17.06399917602539,20.37700080871582)">
				<path fill="rgb(210,213,255)" fill-opacity="1" d=" M-11.789999961853027,-7.224999904632568 C-11.755000114440918,-7.2820000648498535 -11.680999755859375,-7.300000190734863 -11.62399959564209,-7.264999866485596 C-11.62399959564209,-7.264999866485596 11.74899959564209,7.058000087738037 11.74899959564209,7.058000087738037 C11.805999755859375,7.0929999351501465 11.824999809265137,7.166999816894531 11.789999961853027,7.223999977111816 C11.755000114440918,7.281000137329102 11.680999755859375,7.298999786376953 11.62399959564209,7.263999938964844 C11.62399959564209,7.263999938964844 -11.75,-7.057000160217285 -11.75,-7.057000160217285 C-11.807000160217285,-7.0929999351501465 -11.824999809265137,-7.168000221252441 -11.789999961853027,-7.224999904632568z"></path>
			</g>
			<g opacity="1" transform="matrix(1,0,0,1,17.06399917602539,23.770000457763672)">
				<path fill="rgb(210,213,255)" fill-opacity="1" d=" M-11.789999961853027,-7.14900016784668 C-11.755000114440918,-7.205999851226807 -11.680999755859375,-7.223999977111816 -11.62399959564209,-7.190000057220459 C-11.62399959564209,-7.190000057220459 11.75,6.98199987411499 11.75,6.98199987411499 C11.807000160217285,7.017000198364258 11.824999809265137,7.091000080108643 11.789999961853027,7.1479997634887695 C11.755000114440918,7.204999923706055 11.680999755859375,7.223999977111816 11.62399959564209,7.189000129699707 C11.62399959564209,7.189000129699707 -11.74899959564209,-6.982999801635742 -11.74899959564209,-6.982999801635742 C-11.807000160217285,-7.01800012588501 -11.824999809265137,-7.0920000076293945 -11.789999961853027,-7.14900016784668z"></path>
			</g>
			<g opacity="1" transform="matrix(1,0,0,1,17.06399917602539,27.23699951171875)">
				<path fill="rgb(210,213,255)" fill-opacity="1" d=" M-11.789999961853027,-7.14900016784668 C-11.755000114440918,-7.205999851226807 -11.680999755859375,-7.223999977111816 -11.62399959564209,-7.189000129699707 C-11.62399959564209,-7.189000129699707 11.75,6.982999801635742 11.75,6.982999801635742 C11.807000160217285,7.01800012588501 11.824999809265137,7.0920000076293945 11.789999961853027,7.14900016784668 C11.755000114440918,7.205999851226807 11.680999755859375,7.223999977111816 11.62399959564209,7.189000129699707 C11.62399959564209,7.189000129699707 -11.74899959564209,-6.982999801635742 -11.74899959564209,-6.982999801635742 C-11.807000160217285,-7.01800012588501 -11.824999809265137,-7.0920000076293945 -11.789999961853027,-7.14900016784668z"></path>
			</g>
		</g>
	</g>
</svg>